C:\Users\jason\Desktop\DemoProjectMaven\src\main\java\com\novuyo\Dao\FakeStudentDaoImpl.java
C:\Users\jason\Desktop\DemoProjectMaven\src\main\java\com\novuyo\Dao\MongoStudentDaoImpl.java
C:\Users\jason\Desktop\DemoProjectMaven\src\main\java\com\novuyo\Dao\StudentDao.java
C:\Users\jason\Desktop\DemoProjectMaven\src\main\java\com\novuyo\Service\StudentService.java
C:\Users\jason\Desktop\DemoProjectMaven\src\main\java\com\novuyo\Entity\Student.java
C:\Users\jason\Desktop\DemoProjectMaven\src\main\java\com\novuyo\Controller\StudentController.java
C:\Users\jason\Desktop\DemoProjectMaven\src\main\java\com\novuyo\Main.java
C:\Users\jason\Desktop\DemoProjectMaven\src\main\java\com\novuyo\Dao\MySqlStudentDaoImpl.java
